[ {
  "uid" : "1dfd3851afd0a051",
  "name" : "Verifying division operation of super calculator",
  "time" : {
    "start" : 1600269764654,
    "stop" : 1600269767180,
    "duration" : 2526
  },
  "status" : "passed",
  "severity" : "normal"
}, {
  "uid" : "5d4bd55268fb9b9e",
  "name" : "Verifying modulo operation of super calculator",
  "time" : {
    "start" : 1600269767558,
    "stop" : 1600269770046,
    "duration" : 2488
  },
  "status" : "passed",
  "severity" : "normal"
}, {
  "uid" : "3e3e0e9f79d81b48",
  "name" : "Verifying multiplication operation of super calculator",
  "time" : {
    "start" : 1600269761880,
    "stop" : 1600269764270,
    "duration" : 2390
  },
  "status" : "passed",
  "severity" : "normal"
}, {
  "uid" : "ec75662f7d71b1d",
  "name" : "Verifying subtraction operation of super calculator",
  "time" : {
    "start" : 1600269756673,
    "stop" : 1600269759063,
    "duration" : 2390
  },
  "status" : "passed",
  "severity" : "normal"
}, {
  "uid" : "dcf4f4493c575acd",
  "name" : "Verifying addition operation of super calculator",
  "time" : {
    "start" : 1600269754252,
    "stop" : 1600269756671,
    "duration" : 2419
  },
  "status" : "passed",
  "severity" : "normal"
}, {
  "uid" : "40766ded01c6c507",
  "name" : "Verifying subtraction operation of super calculator",
  "time" : {
    "start" : 1600269759242,
    "stop" : 1600269761628,
    "duration" : 2386
  },
  "status" : "passed",
  "severity" : "normal"
} ]