{
  "uid" : "83edc06c07f9ae9e47eb6dd1b683e4e2",
  "name" : "packages",
  "children" : [ {
    "name" : "Super Calculator Addition Operation Functionality Test, ",
    "children" : [ {
      "name" : "Verifying addition operation of super calculator",
      "uid" : "d4dbbae247691fb4",
      "parentUid" : "3c0ddcc61c101d54350689835b79bc26",
      "status" : "passed",
      "time" : {
        "start" : 1601562840147,
        "stop" : 1601562842680,
        "duration" : 2533
      },
      "flaky" : false,
      "newFailed" : false,
      "parameters" : [ ]
    }, {
      "name" : "Verifying subtraction operation of super calculator",
      "uid" : "5c44bb54deb4a977",
      "parentUid" : "3c0ddcc61c101d54350689835b79bc26",
      "status" : "passed",
      "time" : {
        "start" : 1601562842685,
        "stop" : 1601562845277,
        "duration" : 2592
      },
      "flaky" : false,
      "newFailed" : false,
      "parameters" : [ ]
    } ],
    "uid" : "3c0ddcc61c101d54350689835b79bc26"
  }, {
    "name" : "Super Calculator Subtraction Operation Functionality Test, ",
    "children" : [ {
      "name" : "Verifying subtraction operation of super calculator",
      "uid" : "3ba648979677b49c",
      "parentUid" : "a31a9732a14341d469e423da3dc506bf",
      "status" : "passed",
      "time" : {
        "start" : 1601562845607,
        "stop" : 1601562848202,
        "duration" : 2595
      },
      "flaky" : false,
      "newFailed" : false,
      "parameters" : [ ]
    } ],
    "uid" : "a31a9732a14341d469e423da3dc506bf"
  }, {
    "name" : "Super Calculator Multiplication Operation Functionality Test, ",
    "children" : [ {
      "name" : "Verifying multiplication operation of super calculator",
      "uid" : "fdf4cb0c60ae0a3e",
      "parentUid" : "2ecf56ee376af2a9ad421b2ee82f61fb",
      "status" : "passed",
      "time" : {
        "start" : 1601562848993,
        "stop" : 1601562852039,
        "duration" : 3046
      },
      "flaky" : false,
      "newFailed" : false,
      "parameters" : [ ]
    } ],
    "uid" : "2ecf56ee376af2a9ad421b2ee82f61fb"
  }, {
    "name" : "Super Calculator Division Operation Functionality Test, ",
    "children" : [ {
      "name" : "Verifying division operation of super calculator",
      "uid" : "c7075d7924528e34",
      "parentUid" : "bde4fc1e7d3ac697a24ee0a746189b40",
      "status" : "passed",
      "time" : {
        "start" : 1601562852698,
        "stop" : 1601562855829,
        "duration" : 3131
      },
      "flaky" : false,
      "newFailed" : false,
      "parameters" : [ ]
    } ],
    "uid" : "bde4fc1e7d3ac697a24ee0a746189b40"
  }, {
    "name" : "Super Calculator Modulo Operation Functionality Test, ",
    "children" : [ {
      "name" : "Verifying modulo operation of super calculator",
      "uid" : "771824e127b417c7",
      "parentUid" : "f8dca431619e2b531a28103578d8e839",
      "status" : "passed",
      "time" : {
        "start" : 1601562856591,
        "stop" : 1601562859210,
        "duration" : 2619
      },
      "flaky" : false,
      "newFailed" : false,
      "parameters" : [ ]
    } ],
    "uid" : "f8dca431619e2b531a28103578d8e839"
  } ]
}