{
  "uid" : "98d3104e051c652961429bf95fa0b5d6",
  "name" : "suites",
  "children" : [ {
    "name" : "Super Calculator Addition Operation Functionality Test, ",
    "children" : [ {
      "name" : "Verifying addition operation of super calculator",
      "uid" : "dcf4f4493c575acd",
      "parentUid" : "e8af91f8bc330fc40e526811a24a3127",
      "status" : "passed",
      "time" : {
        "start" : 1600269754252,
        "stop" : 1600269756671,
        "duration" : 2419
      },
      "flaky" : false,
      "newFailed" : false,
      "parameters" : [ ]
    }, {
      "name" : "Verifying subtraction operation of super calculator",
      "uid" : "ec75662f7d71b1d",
      "parentUid" : "e8af91f8bc330fc40e526811a24a3127",
      "status" : "passed",
      "time" : {
        "start" : 1600269756673,
        "stop" : 1600269759063,
        "duration" : 2390
      },
      "flaky" : false,
      "newFailed" : false,
      "parameters" : [ ]
    } ],
    "uid" : "e8af91f8bc330fc40e526811a24a3127"
  }, {
    "name" : "Super Calculator Subtraction Operation Functionality Test, ",
    "children" : [ {
      "name" : "Verifying subtraction operation of super calculator",
      "uid" : "40766ded01c6c507",
      "parentUid" : "8db8625fc75eafee88af3d3314dc1fca",
      "status" : "passed",
      "time" : {
        "start" : 1600269759242,
        "stop" : 1600269761628,
        "duration" : 2386
      },
      "flaky" : false,
      "newFailed" : false,
      "parameters" : [ ]
    } ],
    "uid" : "8db8625fc75eafee88af3d3314dc1fca"
  }, {
    "name" : "Super Calculator Multiplication Operation Functionality Test, ",
    "children" : [ {
      "name" : "Verifying multiplication operation of super calculator",
      "uid" : "3e3e0e9f79d81b48",
      "parentUid" : "6d1919a6c7aa6142843a1a284f894306",
      "status" : "passed",
      "time" : {
        "start" : 1600269761880,
        "stop" : 1600269764270,
        "duration" : 2390
      },
      "flaky" : false,
      "newFailed" : false,
      "parameters" : [ ]
    } ],
    "uid" : "6d1919a6c7aa6142843a1a284f894306"
  }, {
    "name" : "Super Calculator Division Operation Functionality Test, ",
    "children" : [ {
      "name" : "Verifying division operation of super calculator",
      "uid" : "1dfd3851afd0a051",
      "parentUid" : "d8ce03edbd367a4fc4d5933b6c252dc8",
      "status" : "passed",
      "time" : {
        "start" : 1600269764654,
        "stop" : 1600269767180,
        "duration" : 2526
      },
      "flaky" : false,
      "newFailed" : false,
      "parameters" : [ ]
    } ],
    "uid" : "d8ce03edbd367a4fc4d5933b6c252dc8"
  }, {
    "name" : "Super Calculator Modulo Operation Functionality Test, ",
    "children" : [ {
      "name" : "Verifying modulo operation of super calculator",
      "uid" : "5d4bd55268fb9b9e",
      "parentUid" : "b67f7baa9c5f989ca63bf3bfe175c0e0",
      "status" : "passed",
      "time" : {
        "start" : 1600269767558,
        "stop" : 1600269770046,
        "duration" : 2488
      },
      "flaky" : false,
      "newFailed" : false,
      "parameters" : [ ]
    } ],
    "uid" : "b67f7baa9c5f989ca63bf3bfe175c0e0"
  } ]
}