[ {
  "uid" : "761e532e25e9a9c6",
  "name" : "Verifying subtraction operation of super calculator",
  "time" : {
    "start" : 1600227940973,
    "stop" : 1600227943449,
    "duration" : 2476
  },
  "status" : "passed",
  "severity" : "normal"
}, {
  "uid" : "4b7004fc6828397f",
  "name" : "Verifying multiplication operation of super calculator",
  "time" : {
    "start" : 1600227946501,
    "stop" : 1600227948915,
    "duration" : 2414
  },
  "status" : "passed",
  "severity" : "normal"
}, {
  "uid" : "2a16f9dd5b7f43db",
  "name" : "Verifying addition operation of super calculator",
  "time" : {
    "start" : 1600227938403,
    "stop" : 1600227940952,
    "duration" : 2549
  },
  "status" : "passed",
  "severity" : "normal"
}, {
  "uid" : "14458f2c9e0439fa",
  "name" : "Verifying division operation of super calculator",
  "time" : {
    "start" : 1600227949205,
    "stop" : 1600227951678,
    "duration" : 2473
  },
  "status" : "passed",
  "severity" : "normal"
}, {
  "uid" : "3011f177ceee9ca4",
  "name" : "Verifying subtraction operation of super calculator",
  "time" : {
    "start" : 1600227943653,
    "stop" : 1600227946219,
    "duration" : 2566
  },
  "status" : "passed",
  "severity" : "normal"
}, {
  "uid" : "ace304eb95ba5727",
  "name" : "Verifying modulo operation of super calculator",
  "time" : {
    "start" : 1600227951953,
    "stop" : 1600227954419,
    "duration" : 2466
  },
  "status" : "passed",
  "severity" : "normal"
} ]